[
  "../../node_modules/angular/angular.js",
  "../../node_modules/angular-route/angular-route.js",
  "../../node_modules/flatpickr/dist/flatpickr.min.js",
  "../../node_modules/angular-flatpickr/dist/ng-flatpickr.js",
  "./src/app.js",
  "./src/**/*.js",
  "!./src/login-script.js"
]